…
## Installation

```
devtools::install_github("tomhopper/blscraperplus")
```

## Example

```
> load_bls_data(file_name = "temp/employer_jobs_s.rds", series_id = "CES0000000001", start_year = 1994)
Downloading data from BLS.
REQUEST_SUCCEEDED
REQUEST_SUCCEEDED
REQUEST_SUCCEEDED
# A tibble: 306 x 8
    year period periodName latest  value footnotes seriesID      Date      
   <dbl> <chr>  <chr>      <chr>   <dbl> <chr>     <chr>         <date>    
 1  1994 M01    January    NA     112601 ""        CES0000000001 1994-01-31
 2  1994 M02    February   NA     112785 ""        CES0000000001 1994-02-28
 3  1994 M03    March      NA     113248 ""        CES0000000001 1994-03-31
 4  1994 M04    April      NA     113592 ""        CES0000000001 1994-04-30
 5  1994 M05    May        NA     113928 ""        CES0000000001 1994-05-31
 6  1994 M06    June       NA     114242 ""        CES0000000001 1994-06-30
 7  1994 M07    July       NA     114613 ""        CES0000000001 1994-07-31
 8  1994 M08    August     NA     114902 ""        CES0000000001 1994-08-31
 9  1994 M09    September  NA     115251 ""        CES0000000001 1994-09-30
10  1994 M10    October    NA     115464 ""        CES0000000001 1994-10-31
# … with 296 more rows```
```

The next time we run the function, supplying the same filename, it just loads the data from disk.
```
> load_bls_data(file_name = "temp/employer_jobs_s.rds", series_id = "CES0000000001", start_year = 1994)
Loading data from existing data file.
# A tibble: 306 x 8
    year period periodName latest  value footnotes seriesID      date      
   <dbl> <chr>  <chr>      <chr>   <dbl> <chr>     <chr>         <date>    
 1  1994 M01    January    NA     112601 ""        CES0000000001 1994-01-01
 2  1994 M02    February   NA     112785 ""        CES0000000001 1994-02-01
 3  1994 M03    March      NA     113248 ""        CES0000000001 1994-03-01
 4  1994 M04    April      NA     113592 ""        CES0000000001 1994-04-01
 5  1994 M05    May        NA     113928 ""        CES0000000001 1994-05-01
 6  1994 M06    June       NA     114242 ""        CES0000000001 1994-06-01
 7  1994 M07    July       NA     114613 ""        CES0000000001 1994-07-01
 8  1994 M08    August     NA     114902 ""        CES0000000001 1994-08-01
 9  1994 M09    September  NA     115251 ""        CES0000000001 1994-09-01
10  1994 M10    October    NA     115464 ""        CES0000000001 1994-10-01
# … with 296 more rows
```
…
